[
  "notion-like-tables",
  "dataview",
  "obsidian-vimrc-support",
  "calendar",
  "obsidian-linter",
  "obsidian-mind-map",
  "table-editor-obsidian",
  "recent-files-obsidian",
  "obsidian-relative-line-numbers",
  "obsidian-excalidraw-plugin"
]